{
  "traders":{
    "default":"default",
    "96.9.211.108":"anttrader",    
    "2.121.50.128":"dev",
    "165.225.80.61":"local",
    "172.93.221.103":"anttrader_jp",
    "89.212.238.206":"limit_order",
    "51.75.20.1":"france"
  },
  "ws_backtest":{
    "ws_run_as_ip":"0.0.0.0",
    "ws_run_as_port":5001,
    "urls":["http://127.0.0.1:5001", "http://51.75.20.1:5001"],
    "trusted_pi_addresses":["2.121.50.128", "2.223.149.20", "165.225.80.61", 
                            "96.9.211.108", "172.93.221.103", "51.75.20.1",
                            "89.212.238.206", "217.169.53.124", "188.230.160.240"],
    "timeout":60,
    "send_email":false
  },
  "backtest":{
    "pair1":"BNB",
    "pair2":"USDT",
    "interval":"5m",
    "from": 1509940200000,
    "to": 1553558400000,
    "initial_amount": 1000,
    "buy_fee": 0.00075,
    "sell_fee": 0.00075,
    "process_batch": 300,
    "indicators":{
      "linRegWave":false
    },
    "params":[{
        "name": "wrnpctileTop",
        "from": 64,
        "to": 90,
        "step": 1,
        "enabled":true
      },{
        "name":"wrnpctileBottom",
        "from":62,
        "to":90,
        "step":1,
        "enabled":true
      },{
        "name":"doTradeInRestrictedArea",
        "from":true,
        "to":false,
        "step":null,
        "enabled":true
      },{
        "name": "dropThreshold",
        "from": 0.02,
        "to": 0.025,
        "step": 0.001,
        "enabled":true
      },{
        "name":"fastDropFrames",
        "from":4,
        "to":6,
        "step":1,
        "enabled":true
      },{
        "name":"dropPriceFromBuySellTolerance",
        "from":0.030,
        "to":0.038,
        "step":0.002,
        "enabled":true
      }]
  },
  "backtest_compare":{
    "pair1":"BNB",
    "pair2":"USDT",
    "initial_amount":1000,
    "param":[73.0, 64.25],
    "fromDate":1547942400000,
    "toDate":1548764100000
  }, 
  "string":"AntTrader - backtest 1.01 beta"
}
